[
	{
		"id": "GENERAR CAMBIOS PARA UNA CULTURA DE ACCESO A INFORMACIÓN Y PARTICIPACIÓN EFECTIVA Y SISTEMATICA CON ENFOQUE DE DERECHOS DE NIÑEZ Y ADOLESCENCIA.",
		"cveRol": "Opinar las iniciativas de ley que garanticen el derecho de la infancia a ser escuchada y tomada en cuenta en los procesos de los que sean parte.",
		"descripcion": "Revisar la legislación civil, laboral y administrativa que obstaculice la garantía de ejercicio de los derechos de niñas, niños y adolescentes"
	}
	
]